…
Attached to this data are the geo locations with its longitude and
latitude for visualization purposes. The geo location is received via
the `ggmap` interface to google maps. Package documentation for the
setup can be seen [here](https://github.com/dkahle/ggmap).

The data is nested, implicating that some google maps data variables and
RKI PLZ tool variables are nested and they can be explored via the
e.g. `tidyr`s `unnest()` functions.

``` r
library(sormasmap)
gesundheitsaemter
#> # A tibble: 399 x 13
#>    id    name  department street postalcode place plz_rki gemeinden  long   lat
#>    <chr> <chr> <chr>      <chr>  <chr>      <chr> <list>  <list>    <dbl> <dbl>
#>  1 1     Stad~ Fachberei~ Norde~ 24939      Flen~ <chr [~ <chr [14~  9.43  54.8
#>  2 2     Land~ Amt für G~ Fleet~ 24103      Kiel  <chr [~ <chr [31~ 10.1   54.3
#>  3 3     Hans~ Gesundhei~ Sophi~ 23560      Lübe~ <chr [~ <chr [11~ 10.7   53.9
#>  4 4     Stad~ Gesundhei~ Meßto~ 24534      Neum~ <chr [~ <chr [12~  9.99  54.1
#>  5 5     Krei~ Fachdiens~ Esmar~ 25746      Heide <chr [~ <chr [10~  9.08  54.2
#>  6 6     Krei~ Fachdiens~ Damm 8 25813      Husum <NULL>  <chr [11~  9.05  54.5
#>  7 7     Krei~ Fachdiens~ Holst~ 23701      Eutin <chr [~ <chr [36~ 10.6   54.1
#>  8 8     Krei~ Fachdiens~ Kurt-~ 25337      Elms~ <chr [~ <chr [37~  9.70  53.7
#>  9 9     Krei~ Fachdiens~ Kaise~ 24768      Rend~ <NULL>  <chr [10~  9.67  54.3
#> 10 10    Krei~ Fachdiens~ Moltk~ 24837      Schl~ <chr [~ <chr [72~  9.56  54.5
#> # ... with 389 more rows, and 3 more variables: plz_google <chr>,
#> #   data_rki <list>, data_google <list>
```

As an example, you are interested in one region, here the Thuringian
city Eisenach. Select important variables:

``` r
library(dplyr)
library(tidyr)

gesus <- gesundheitsaemter %>% 
  select(name, postalcode, plz_rki, gemeinden, long, lat) 
gesus
#> # A tibble: 399 x 6
#>    name                        postalcode plz_rki    gemeinden    long   lat
#>    <chr>                       <chr>      <list>     <list>      <dbl> <dbl>
#>  1 Stadt Flensburg             24939      <chr [5]>  <chr [14]>   9.43  54.8
#>  2 Landeshauptstadt Kiel       24103      <chr [17]> <chr [31]>  10.1   54.3
#>  3 Hansestadt Lübeck           23560      <chr [12]> <chr [11]>  10.7   53.9
#>  4 Stadt Neumünster            24534      <chr [5]>  <chr [12]>   9.99  54.1
#>  5 Kreis Dithmarschen          25746      <chr [31]> <chr [103]>  9.08  54.2
#>  6 Kreis Nordfriesland         25813      <NULL>     <chr [111]>  9.05  54.5
#>  7 Kreis Ostholstein           23701      <chr [27]> <chr [36]>  10.6   54.1
#>  8 Kreisverwaltung Pinneberg   25337      <chr [28]> <chr [37]>   9.70  53.7
#>  9 Kreis Rendsburg-Eckernförde 24768      <NULL>     <chr [105]>  9.67  54.3
#> 10 Kreis Schleswig-Flensburg   24837      <chr [70]> <chr [72]>   9.56  54.5
#> # ... with 389 more rows
```
…
